%YAML 1.1
%TAG !u! tag:unity3d.com,2011:
--- !u!47 &1
QualitySettings:
  m_ObjectHideFlags: 0
  serializedVersion: 5
  m_CurrentQuality: 1
  m_QualitySettings:
  - serializedVersion: 2
    name: Simple
    pixelLightCount: 1
    shadows: 1
    shadowResolution: 0
    shadowProjection: 1
    shadowCascades: 1
    shadowDistance: 20
    blendWeights: 2
    textureQuality: 0
    anisotropicTextures: 1
    antiAliasing: 0
    softParticles: 0
    softVegetation: 0
    vSyncCount: 0
    lodBias: .699999988
    maximumLODLevel: 0
    particleRaycastBudget: 64
    excludedTargetPlatforms: []
  - serializedVersion: 2
    name: Good
    pixelLightCount: 8
    shadows: 2
    shadowResolution: 0
    shadowProjection: 0
    shadowCascades: 1
    shadowDistance: 500
    blendWeights: 2
    textureQuality: 0
    anisotropicTextures: 1
    antiAliasing: 4
    softParticles: 0
    softVegetation: 1
    vSyncCount: 1
    lodBias: 1
    maximumLODLevel: 0
    particleRaycastBudget: 256
    excludedTargetPlatforms: []
  - serializedVersion: 2
    name: Fantastic
    pixelLightCount: 8
    shadows: 2
    shadowResolution: 2
    shadowProjection: 1
    shadowCascades: 4
    shadowDistance: 500
    blendWeights: 4
    textureQuality: 0
    anisotropicTextures: 2
    antiAliasing: 8
    softParticles: 1
    softVegetation: 1
    vSyncCount: 1
    lodBias: 2
    maximumLODLevel: 0
    particleRaycastBudget: 4096
    excludedTargetPlatforms: []
  m_PerPlatformDefaultQuality:
    Android: 0
    BlackBerry: 0
    Standalone: 1
    WP8: 0
    Web: 1
    Windows Store Apps: 0
    iPhone: 0
